…
    
    
    
    
    
    
    
    
    

    # you cade should be here
    slice(1:30)
# 參考答案
## # A tibble: 30 x 6
##    commentor    num_post max_c2p min_c2p mean_c2p sd_c2p
##    <chr>           <int>   <dbl>   <dbl>    <dbl>  <dbl>
##  1 aylao            1775      29       1     4.27   5.45
##  2 bottger          1569     148       1    15.0   27.2
##  3 ninaman          1497      87       1    16.3   18.1
##  4 zeumax           1286     110       1    17.4   22.1
##  5 gn02118620       1206     128       1    36.4   36.7
##  6 bluesunflowe     1197      86       1    18.3   21.3
##  7 pupu20317        1190     103       1    15.6   24.6
##  8 formatted        1114      77       1    15.6   18.6
##  9 alex8725          984      64       1    12.1   13.9
## 10 c1951             886      38       1     6.19   7.05
## # ... with 20 more rows
…
